VertexLitGeneric
{
	"$baseTexture" "models/weapons/v_models/pist_deagle/trigger"
	"$halflambert" 			"1"
	"$phong" 			"1"
	"$basemapalphaphongmask"		"1"
	"$phongfresnelranges" 		"[2 7 6]"
	"$phongexponent" 			"60"
	"$phongboost" 			"1"
	"$phongalbedotint" 			"1"
}
