patch
{

include "materials/models/survivors/survivors_it_shared.vmt"
insert
{

$baseTexture "models\player\lightning\gear_d"
$bumpmap "models\player\lightning\gear_n"
$phongexponenttexture "models\player\lightning\gear_gloss"
$halflambert 0
$phong 1
$phongboost "1.0"
//$phongexponent 6
$phongtint "[.85 .85 1]"
$phongfresnelranges "[0.5 4 10]"

$rimlight 1
$rimlightexponent "4"
$rimlightboost 3

$ambientocclusion 1
$diffuseexp "1.5"
}
}
