vertexlitgeneric
{

$baseTexture "models\player\lightning\hair_d_8ba"
$bumpmap "models\player\lightning\hair_n"
$phongexponenttexture "models\player\lightning\hair_gloss"
$phong 1
$phongboost "1.7"
$phongexponent 10
$phongtint "[.85 .85 1]"
$phongfresnelranges "[0.5 3 5]"

$alphatest 1
//$translucent 1

$rimlight 1
$rimlightexponent "60"
$rimlightboost 2

$nocull 1
$halflambert 1

$ambientocclusion 1
$diffuseexp "1.5"
}
