"VertexLitGeneric"
{
	"$basetexture" "models\weapons\v_models\FNScar\Panel"
	"$bumpmap" "models\weapons\v_models\FNScar\panel_norm"
	"$normalmapalphaenvmapmask" "1"
	"$phong" 		"1"
	"$phongexponent" 	"40"
	"$phongboost" "0.75"
	"$phongfresnelranges" "[1 3 6]"
     //	"$phongalbedotint" "1"
}