vertexlitgeneric
{

$baseTexture "\minson97\bo2\seal\c_usa_seal_sunglass_c"

$halflambert 1

 	"$phong" "1"
	"$phongexponent" "5"
	"$phongboost"	"1"
	"$phongfresnelranges"	"[1 6 12]"

// Reflection cubemap 
"$envmap"	"env_cubemap"
"$envmapframe"	"0"
// $normalmapalphaenvmapmask" 1 

// Specular tint
"$envmaptint" "[.01 .01 .01]"
	"$nodecal" "1"




}
