"VertexLitGeneric"
{
	"$basetexture" "models/Weapons/w_banegun/w_shotgun"
	"$envmap" "env_cubemap"
	"$envmapcontrast" 1
	"$bumpmap" "models/weapons/w_shotgun/w_shotgun_normal"
	"$normalmapalphaenvmapmask" 1
}
