"VertexlitGeneric"
{
	"$basetexture" "models\weapons\v_models\KACpdw\uppercolor_diff"

	"$nocull"	"1"

	"$normalmapalphaenvmapmask" "1"
	"$envmaptint" "[.1 .1 .1]"
	"$envmapcontrast" ".3"
	
	"$phong" 	"1"
	"$phongexponent" 	"30"
	"$phongboost"	 "3"
	"$phongfresnelranges" "[0.2 0.2  0.2]"
	//"$phongfresnelranges" "[0.25 0.75  0.3]"
}