"VertexlitGeneric"
{
	"$basetexture" "models/player/daedric/daedricgloves"

	"$normalmapalphaenvmapmask" 1
	"$selfillum" 1
	"$nocull" 1

	"$phong" 1
	"$phongexponent" 5
	"$phongboost" 5
	"$phongfresnelranges" "[0.05 0.5 1]"
}
