"VertexLitGeneric"
{
	"$basetexture"	"models\weapons\v_models\TwinkeMastaM4A1\magpul"
	"$bumpmap"     "models\weapons\v_models\TwinkeMastaM4A1\magpul_normal"
	"$normalmapalphaenvmapmask" "1"
	"$phong" 		"1"
	"$phongexponent" 	"10"
	"$phongboost" "0.75"
	"$phongfresnelranges" "[1 3 6]"
}

