VertexLitGeneric
{
	"$basetexture"	"models\weapons\v_models\WangXm8_AUG\C_Grip_NO_Rails"
	"$bumpmap" 	"models\weapons\v_models\WangXm8_AUG\C_grip_Normal"
// 	"$halflambert" 1
	"$nodecal" "1"
	"$model" "1"

	"$phong" "1"
	"$phongexponent" 40
	"$phongboost"	"12"
	"$phongfresnelranges"	"[0.05 0.5 1]"
}