"VertexLitGeneric"
{
	"$basetexture" "models/weapons/v_models/mw2_acr/fp_ranger_arms_uper"

                "$phong" "1"
                "$phongboost" "1"
                "$phongfresnelranges" "[1 8 6]"

                "$phongalbedotint" "1"
                "$halflambert" "1"
                "$selfillum" "1"


}
