"VertexLitGeneric"
{
	$basetexture "models/staff/glass"
                "$bumpmap" "models/staff/detail_scratchedmetal"
	$envmap env_cubemap
	$envmaptint "[.05 .05 .05]"
	
    $translucent 1
	// $selfillum 1
	// $selfillumtint "[0.5 0.5 1]"
	
    $phong 1
    $phongexponent 8
    $phongboost	7
    $phongfresnelranges	"[.3 1.5 3.0]"
}