"VertexLitGeneric"
{
	"$basetexture" "models/mass_effect_3/weapons/assault_rifles/gb_valkyrie/wpn_asll_diff"
	"$bumpmap" "models/mass_effect_3/weapons/assault_rifles/gb_valkyrie/wpn_asll_norm"
	"$surfaceprop" "metal"
	"$nocull" "1"
	"$halflambert" "1"

	"$normalmapalphaenvmapmask" 1
	"$envmap" "env_cubemap"
	"$envmaptint" "[ .08 .08 .08 ]"
	"$envmapsaturation" ".01"
	"$envmapcontrast" "0.1"
 	"$envmapfresnel" "1"

	"$phong" "1"
	"$phongexponenttexture" "models/mass_effect_3/weapons/assault_rifles/gb_valkyrie/wpn_asll_exp"
//	"$phongexponent" 20
	"$phongboost" "0.2"
	"$phongfresnelranges"	"[ .3 1.2 8]"
	"$phongalbedotint" "1"

	"$rimlight" "1"						
	"$rimlightexponent" "8"				
	"$rimlightboost" ".5"
	"$rimmask" "1"

	"$detail" "models/mass_effect_3/weapons/assault_rifles/gb_valkyrie/wpn_asll_emis"
	"$detailscale" "1"
	"$detailblendfactor" "1.25"
	"$detailblendmode" "5" 
}


















