"VertexLitGeneric"
{
	"$baseTexture" "models\weapons\v_models\Requests Studio\Battlefield 3\Mag Strap D"
	"$bumpmap" "models\weapons\v_models\Requests Studio\Battlefield 3\Mag Strap N"
	$phongexponenttexture "models\weapons\v_models\Requests Studio\Battlefield 3\Mag Strap D"
	$phong 1
	$phongboost ".1"
	$phongalbedoboost 1
	$phongfresnelranges "[.50 .50 1]"
	$basemapalphaphongmask 1
	$phongalbedotint 1
	$phongdisablehalflambert 1
}